<svg xmlns="http://www.w3.org/2000/svg" width="103.796" height="103.796" viewBox="0 0 103.796 103.796">
  <g id="noun_User_2823954" transform="translate(-26.737 -26.737)">
    <path id="Caminho_99" data-name="Caminho 99" d="M78.635,26.737a51.9,51.9,0,1,0,51.9,51.9A51.958,51.958,0,0,0,78.635,26.737ZM45.491,112.509v-5.762A13.144,13.144,0,0,1,58.62,93.618H98.65a13.144,13.144,0,0,1,13.129,13.129v5.762a47.283,47.283,0,0,1-66.289,0Zm70.751-5.075v-.686A17.611,17.611,0,0,0,98.65,89.157H58.62a17.611,17.611,0,0,0-17.591,17.591v.686a47.436,47.436,0,1,1,75.213,0Z" transform="translate(0 0)" fill="#0a0a0a"/>
    <path id="Caminho_100" data-name="Caminho 100" d="M60.88,33.321A19.72,19.72,0,1,0,80.6,53.041,19.742,19.742,0,0,0,60.88,33.321Zm0,34.978A15.258,15.258,0,1,1,76.138,53.041,15.276,15.276,0,0,1,60.88,68.3Z" transform="translate(17.754 8.105)" fill="#0a0a0a"/>
  </g>
</svg>
