<svg xmlns="http://www.w3.org/2000/svg" width="46.526" height="46.526" viewBox="0 0 46.526 46.526">
  <g id="noun_User_2823954" transform="translate(-26.737 -26.737)">
    <path id="Caminho_99" data-name="Caminho 99" d="M50,26.737A23.263,23.263,0,1,0,73.263,50,23.29,23.29,0,0,0,50,26.737ZM35.143,65.184V62.6a5.892,5.892,0,0,1,5.885-5.885H58.972A5.892,5.892,0,0,1,64.857,62.6v2.583a21.194,21.194,0,0,1-29.714,0Zm31.714-2.275V62.6a7.894,7.894,0,0,0-7.885-7.885H41.028A7.894,7.894,0,0,0,33.143,62.6v.308a21.263,21.263,0,1,1,33.714,0Z" fill="#fffbfb"/>
    <path id="Caminho_100" data-name="Caminho 100" d="M50,33.321a8.839,8.839,0,1,0,8.839,8.839A8.849,8.849,0,0,0,50,33.321ZM50,49a6.839,6.839,0,1,1,6.839-6.839A6.847,6.847,0,0,1,50,49Z" fill="#fffbfb"/>
  </g>
</svg>
